397
71
1104
926
18
96
1005
3
2997
28
466
1810
534
358
39
108
92
86
164
4511
84
2511
310
109
874
338
97
264
21
362
101
117
8052
425
636
291
17740
686
1345
88
634
442
68
924
85
70
3058
142
3264
644
70
102
2730
1555
820
132
2489
3607
136
972
704
2150
108
2766
778
43
64
776
280
293
150
336
126
4566
46
2381
274
215
500
2667
896
3570
1235
158
127
13824
829
177
959
3016
6309
4076
385
2033
37
388
3756
108
214
221
53
28
2500
1087
6
1200
210
17176
32
504
16
680
309
764
1794
222
754
987
15
815
2302
3876
6585
1680
707
394
1233
17
9
120
41
290
131
1662
31
797
74
41
1359
562
5582
134
804
338
40
3
27
295
1308
686
2566
401
2565
639
256
4316
27
3611
207
622
1610
2220
24
8
902
3775
318
24
237
510
292
18006
297
4033
3106
13028
120
668
3
159
138
182
124
1615
546
30312
31
125
139
686
386
432
33
52
842
42
1273
952
1050
2183
700
184
24
862
273
1259
83
1126
216
3792
35
360
558
131
41
26
864
1711
202
963
176
20
423
1904
11260
841
4824
1095
212
682
3285
4114
1217
356
2691
245
1634
284
11260
12
183
44
171
56
367
3306
211
524
297
32
1274
4179
20
535
1111
250
236
60
15330
5451
1626
1230
507
3730
361
124
315
318
450
96
599
9
1290
435
34
426
1502
88
446
2152
578
91
1778
56
441
128
2356
29421
3
56
10
486
3668
2051
420
148
545
891
782
14
131
64
8370
13
6
93
8184
955
100
352
1192
55
965
6
4139
756
2312
1597
1390
4
170
4308
5006
98
1372
17
89
4565
10848
343
979
1578
765
438
714
152
12
32
4605
123
423
686
3741
1394
62
482
801
30
30
1474
1825
138
90
4
52
2420
6519
629
537
760
391
3246
608
132
3674
2600
6882
4834
938
266
458
1409
44
399
19
120
3594
216
95
2460
276
184
359
7
713
534
4183
503
350
2065
2
72
2004
3285
8
123
126
214
261
862
493
80
161
74
287
564
474
80
582
127
54
102
175
10
19
109
3966
870
759
5264
344
3829
384
22
1919
386
54
4708
256
268
44
261
194
1898
1463
714
16
67
504
1755
53
3094
307
170
3632
898
1886
442
50
433
75
322
16
5932
169
2777
248
188
244
104
210
448
70
268
1092
2520
1034
384
8628
210
438
56
1226
2511
52
1611
4022
35
638
9
838
1225
46
2072
1488
6
11602
140
3383
521
39
112
1129
68
1624
348
468
861
62
704
404
72
31
365
4890
162
942
19986
2123
1569
318
3360
61
288
1206
29
1235
196
237
66
12
18444
384
337
786
4675
707
4500
1810
204
3833
808
1718
251
3581
41
32
478
81
3323
544
703
105
137
18
654
12
2400
85
361
24
5
67
3635
5310
12777
4858
2014
120
50
910
1238
29
1764
546
1396
231
29
4108
2541
11
2366
56
720
1164
202
4609
151
82
2
4823
6
63
2578
5835
613
746
324
552
154
162
138
2215
1082
2236
5535
1712
5
1422
208
411
65
5091
4500
331
1590
1351
4791
264
672
5
657
64
407
5228
12
301
2152
1020
616
797
2981
460
1325
706
723
126
529
648
2314
2619
3710
953
542
804
706
1798
273
1414
681
1
486
1626
342
16
317
112
213
585
220
7628
1281
168
687
349
24
44
832
451
800
20214
5907
138
127
572
2981
594
480
431
183
158
1616
1378
840
349
2364
152
277
216
1887
1588
13020
825
60
4104
182
702
140
7180
1523
100
4
16
159
161
10
498
139
622
296
591
2072
36
278
1823
76
378
674
728
798
116
23
50
500
595
2232
1647
148
2311
92
1630
1514
2688
178
1460
174
2596
2795
71
609
123
256
344
21
3664
18
514
949
693
20637
1837
69
7115
621
637
3573
616
3182
120
170
8
2581
139
675
33
1422
522
1108
9
168
930
148
2
58
994
876
121
63
34
3342
348
865
288
22
17
260
1393
1158
130
1083
71
238
69
54
4215
864
1558
1572
272
3603
111
157
1102
719
1048
1134
131
307
123
4867
134
2556
93
713
1562
436
972
246
1511
3462
882
2528
189
85
174
86
485
748
3656
199
308
1786
112
1996
10
890
37
326
5950
886
1497
5328
1601
95
4507
4131
1462
1770
31
1642
2475
256
168
542
45
3136
764
10488
286
1193
1534
174
90
24
51
335
200
1757
4450
161
1309
124
4
2512
5
156
14
30
270
118
56
183
7702
1609
2344
1023
1968
54
165
10
736
261
3152
3962
592
2210
858
528
33
249
50
540
732
256
189
13
1469
2674
600
644
3117
5762
2020
542
2532
492
2109
848
62
1896
2958
679
1848
658
483
2776
1602
744
8
598
12
213
342
2666
141
2
1572
1014
66
329
421
838
923
219
777
4590
1146
1583
336
48
344
35
214
1
1268
3706
11
261
423
1012
3217
2506
411
229
267
423
127
9444
1752
8268
1404
6
358
3327
101
1973
1420
52
113
2296
202
866
711
44
923
146
2016
201
123
2907
207
889
11
8582
3501
1348
36
80
279
224
3
395
129
3195
145
2626
115
596
692
4362
1412
99
30
322
744
130
161
828
133
14
2376
574
18
61
22
10
159
906
106
1520
2984
3444
129
430
177
921
5001
2772
70
2322
16
76
296
19
22
2717
1974
265
93
128
147
376
222
400
7230
129
6692
313
72
11260
1439
13824
2381
86
122
4057
1630
5885
1294
24
2312
4918
14
100
164
20
794
118
20
504
168
534
94
25
585
3869
83
784
10569
300
276
22
1488
205
922
3176
128
237
428
132
960
131
4002
1789
3827
1593
2724
71
1286
92
13
156
1010
2586
445
2707
1992
866
16
89
1452
3535
2831
3888
2279
3375
70
30
941
2311
1253
1170
2176
365
3599
5079
317
303
311
81
1712
349
159
267
1
480
250
29
261
443
14
477
1126
1066
2783
396
4637
2795
128
169
546
4
60
197
707
7302
54
41
310
471
2241
2056
4500
918
1574
541
727
33
277
49
4587
1479
150
74
1315
3034
198
2113
2617
1926
5955
8034
2430
921
42
815
2261
1045
612
2766
237
10
194
159
914
815
257
575
59
579
318
930
4165
419
2210
220
13
169
91
10
92
2748
21
1962
854
108
371
274
676
18
104
2089
187
247
2936
224
112
800
165
1626
587
274
40
1518
94
48
1128
13426
312
612
200
1287
238
216
149
1153
786
73
638
118
510
10962
786
1090
1141
699
6048
65
206
40
813
1988
6484
647
324
318
15
483
373
150
70
523
435
434
1483
2524
96
3838
5293
3434
180
9
291
9186
744
2157
8880
2103
45
526
1893
422
2642
110
1423
360
121
576
25
2981
2976
6073
35
73
62
29
488
627
4850
3192
814
6132
547
3156
262
3105
33
17
96
250
30
68
596
15
244
221
1526
44
970
364
733
571
4834
3154
353
386
70
46
615
411
954
847
1678
25
22
804
393
627
59
4337
525
2852
2344
492
199
2234
384
344
56
73
125
537
2740
65
247
566
25
126
6
2261
4
4263
200
980
390
1060
370
1642
3401
117
187
687
75
1096
181
306
82
2053
4179
61
460
3795
3336
148
36
4
7582
26
262
5
1192
1199
8532
111
2330
92
578
47
104
1882
18
101
1701
130
64
33
2118
180
1031
2868
12
2334
223
2880
116
99
1508
20
1003
27
136
354
132
201
79
982
325
288
138
24
22
2542
89
837
2932
6
280
485
190
22
83
28
2
254
29
156
599
10
233
763
76
1763
12
5331
73
377
262
325
2149
1497
1344
6339
1350
85
229
13
134
833
40
29
94
11
2865
8
259
8
4
291
200
2066
188
14
6
948
392
85
2891
10359
3040
17478
259
282
11
1773
123
12012
859
1402
2684
4128
2063
1058
3074
1518
15
204
163
3764
3825
1022
217
1311
4
1959
315
984
538
71
18
147
1946
5873
387
2291
836
9936
1870
2628
781
90
43
248
284
2232
2236
1405
2676
9960
882
9
164
10870
1866
68
630
882
2288
80
384
391
1263
34
15
210
6630
156
3988
6085
23
22
31
1011
565
360
244
55
433
7104
397
5646
297
6926
1362
2073
765
19
6773
814
1
1274
136
202
206
4629
16
1019
781
1908
1137
438
81
3429
105
180
500
1762
1225
174
245
183
865
8517
665
135
33
1817
48
288
4230
28
1059
38
108
450
399
3339
158
14
373
732
66
900
606
116
220
3909
552
3442
28
1507
98
54
1421
30
38
29490
13
1357
179
8
38
859
712
854
160
273
2285
384
3
241
2022
4853
521
1854
1094
1344
826
60
122
817
2
2616
420
1661
236
56
72
448
602
38
59
139
3
229
450
1452
2060
3570
746
647
4677
286
216
2738
398
108
1143
944
42
64
307
529
7
4056
459
91
182
1493
2070
454
376
2652
111
8331
47
172
705
1971
4
1406
13
62
2810
484
366
74
7722
63
27
158
18
2063
590
399
1636
209
380
2139
34
4005
266
772
56
350
526
712
511
816
294
57
38
3995
2955
1820
196
7621
1857
718
39
67
480
101
41
325
43
12
382
151
139
294
290
65
543
43
1590
575
1303
76
310
5318
652
862
4713
478
44
2284
2202
10116
12396
882
852
8356
1708
474
187
358
4
2740
295
108
624
4093
564
105
390
1156
7440
1520
409
2434
14
14
372
126
790
60
686
2662
1105
594
6
454
766
919
327
279
336
960
661
11
469
2047
1104
238
52
567
86
303
987
26
2545
18
100
6680
54
264
15
3
1454
246
300
2381
112
60
60
1970
114
1033
118
5
888
1470
156
585
113
508
72
685
41
105
732
116
2074
1204
36
256
243
144
18
2446
117
10385
2813
1314
148
16
2138
861
11
1547
491
295
3510
542
6
489
94
371
47
112
359
42
176
268
420
106
3664
481
2366
14844
30
948
851
574
116
26
68
767
1118
215
1309
1006
3947
833
2001
277
168
374
180
4617
206
110
704
89
530
305
33
365
4
5238
1480
57
326
356
324
217
2404
27
1126
692
491
1479
24
271
141
174
3245
171
5
56
162
678
214
804
152
342
74
92
1488
6
3582
1854
266
649
7
542
1065
1035
432
17
96
767
1262
2828
104
597
906
864
3208
195
2272
160
115
11564
152
6858
1387
1058
175
680
15
431
2520
365
164
8248
90
1494
1320
15438
5
1406
246
18
2020
124
140
43
484
12
594
205
2060
122
301
9
1730
828
1836
145
480
1330
139
890
172
1248
22
3259
2391
346
8229
256
318
146
656
1929
1962
611
4330
1775
117
117
82
175
3594
2586
155
1459
145
4341
64
2654
27
561
14
3288
154
90
736
3011
393
148
295
176
2157
1114
160
1589
22
153
145
151
40
46
468
262
2252
1162
508
675
433
150
49
7
5575
16
816
47
138
4589
543
3404
425
1644
203
403
13412
1596
3101
645
1227
498
34
712
115
53
5
113
4702
924
1282
110
183
2051
1270
11248
490
8582
75
866
1530
36
1948
133
535
315
2475
3540
708
120
46
43
2382
173
498
3678
2970
1005
6
12
764
2381
211
50
1503
20
104
46
1179
600
2166
486
804
1703
2424
232
80
48
1732
34
206
1909
425
145
40
269
6236
964
105
2506
1565
191
62
143
503
2904
15330
471
41
262
2619
84
197
388
24
200
198
224
78
2922
278
42
118
13
744
1092
397
339
562
82
1032
672
3768
51
474
19
2963
240
22
6802
863
278
1402
159
358
402
214
1079
638
2682
478
48
340
866
421
188
34
6986
39
2128
114
139
141
490
15
967
684
344
1169
3418
274
127
131
932
816
143
128
729
420
7146
788
56
51
213
442
378
1023
85
70
107
150
88
836
1526
16
685
786
3071
1620
261
1167
186
144
4380
4233
1004
1955
430
54
65
6926
213
191
104
604
595
3651
358
3316
255
1969
1321
846
368
522
1093
2260
339
18
1051
3428
13
32
180
1334
122
3257
486
2420
123
346
3813
380
67
21
1552
59
45
69
1151
3750
581
66
132
1095
180
153
861
266
769
54
1013
428
356
7
8628
9
49
492
484
25
110
8
2
428
46
2311
1134
9
4432
160
2202
1068
442
298
3469
378
1858
594
15
1996
358
75
239
537
62
664
34
840
235
115
300
147
298
529
1517
2397
136
288
2311
193
120
3921
3333
33
16
2638
123
28
50
111
1604
1449
248
5550
4145
64
40
1601
4259
24
1070
264
322
271
495
602
4246
1467
1463
553
13866
24
24
38
312
174
175
3
2595
2
7604
2074
1180
1010
3771
361
9
463
717
182
193
744
516
8
300
5612
1642
183
102
989
5963
3690
580
2733
9
414
2075
2956
197
30
70
1676
274
2240
772
3030
178
199
138
238
3670
198
297
102
247
74
760
536
751
83
1271
132
1328
4
2283
2339
4040
2823
369
313
71
41
36
1740
156
34
156
43
414
354
4
1048
3264
2520
2083
306
53
167
137
460
1131
17718
1003
6
523
72
2712
778
88
77
18
9
1192
2802
186
2575
3635
40
1398
54
287
569
304
69
11
2230
162
431
227
98
36
231
50
64
539
84
36
260
6
7005
212
61
2096
3604
109
10116
499
199
856
170
1210
1407
5463
599
4600
2
219
7539
1945
522
549
537
164
185
2604
1498
2651
393
116
203
4876
1
4
103
452
98
338
544
82
265
423
1751
72
769
21
279
1755
102
3294
41
200
341
5100
1014
350
295
25
1442
2688
43
1244
416
356
450
1552
79
390
168
76
19
7604
58
685
11485
330
10
116
976
342
1460
1608
2263
94
1516
5
1082
1486
4056
5079
271
108
1910
3323
42
1910
105
93
2710
495
30
94
1149
1328
40
173
6
39
112
24
3638
64
2016
489
488
2616
681
4900
380
9
89
7057
110
195
1885
1074
4215
156
771
9039
568
444
28
1345
2003
515
9174
576
1086
1834
114
2394
1924
242
3264
1067
118
595
15
3741
346
338
250
7
68
282
6926
7
13824
18
1338
1263
889
26
14247
11
6710
18006
3127
474
949
2955
12
36
380
369
273
47
22
1755
252
1886
1478
43
702
805
1054
39
24
353
6249
679
2595
84
311
4054
325
267
879
22
2381
8298
256
45
556
148
1210
139
7401
2245
426
442
420
895
50
2928
13
546
729
4053
2253
259
3462
535
259
55
3951
206
3956
457
206
3680
335
1242
154
1906
120
5662
10
576
275
6926
52
1795
26
88
3
644
10962
287
72
1192
649
125
2192
769
6585
6844
177
706
635
400
3441
178
86
292
94
352
154
3384
186
46
3323
1686
482
1416
450
132
32
1718
3163
71
190
162
702
111
937
1804
1167
696
1334
1026
247
4173
70
3302
28
95
39
533
296
34
83
2678
194
211
533
4609
10
386
88
5079
3988
133
895
90
282
14
19
342
32
64
133
46
50
365
154
708
68
377
16050
565
112
1897
11260
1620
91
902
231
34
402
38
1076
2831
232
10974
487
267
70
2482
15
3838
320
6
53
196
1075
111
226
864
778
1895
589
2098
1638
3
840
620
481
214
64
10
233
21
100
1747
3384
76
141
25
282
1034
3345
1056
528
21
797
4
8292
932
68
419
97
512
178
143
4307
3210
92
370
180
175
258
87
1612
552
596
854
1606
72
2671
61
306
1111
6280
53
198
6
2234
10
635
390
28
795
66
407
12
434
605
405
10
664
1416
724
1167
368
100
802
1029
30
481
1628
3058
340
1642
358
133
3264
86
265
113
26
31
60
192
73
274
2154
28
708
31
3846
1857
276
32
552
352
71
856
1386
355
2907
54
3599
598
1146
1020
192
264
76
150
10
42
258
663
235
1580
353
199
56
69
1131
674
328
292
8
138
2593
285
365
1438
1021
1741
922
45
1333
2074
1233
1545
357
1512
28
1122
41
76
136
95
7764
2352
160
2516
411
498
28
3219
1272
312
5004
1724
1313
34
10
256
1648
272
1171
28
305
90
2304
593
8394
778
6
284
136
75
188
89
10331
468
6
372
213
4179
189
362
2
148
645
789
96
108
57
45
9
22
3912
10473
2894
1710
553
308
3748
1141
90
15
2388
287
353
1707
3282
3829
27
72
23
261
859
1079
983
6
1928
37
12
3787
1074
218
297
900
90
1896
36
638
4084
4009
484
50
66
778
2564
133
100
1
6546
161
2152
245
105
578
422
239
33
1402
31
626
836
802
6699
1504
216
1074
5042
237
2641
686
315
260
2288
1474
326
336
6540
2
850
1052
751
4014
264
674
1268
694
945
192
83
16
47
984
2688
235
987
623
101
1438
1388
9
31
27
28
65
506
7585
183
1137
942
222
660
4572
9
400
804
89
600
156
70
286
392
22
94
204
1282
20
2034
1302
35
2544
214
210
229
91
4312
1950
4
278
2484
261
190
385
1061
842
178
335
666
7
422
348
273
452
1
42
2928
1941
16
25
348
552
31
56
1210
190
74
203
126
422
13028
133
469
144
403
720
174
86
1148
222
1326
123
4813
7726
1307
715
2053
3676
139
18
3490
114
243
279
572
36
109
3989
60
325
1854
8
36
154
472
3
127
878
1777
3
370
506
1638
1954
894
5802
83
473
609
542
7005
2
547
3970
579
1002
2911
919
47
49
18
3383
10
38
3184
218
357
2011
3101
696
3010
854
1168
1210
1857
198
957
522
92
72
519
1971
2
74
922
3381
168
24
541
528
440
286
676
206
136
372
300
137
1217
282
94
274
1267
732
542
44
647
138
248
783
2436
10
11256
1460
87
1358
237
15330
2139
670
990
2183
4329
6
613
266
4606
1014
392
9387
127
148
184
1523
147
742
351
80
1637
204
1137
3576
135
199
2158
906
2279
148
7
5561
611
14
73
1092
191
54
2596
431
33
4938
318
33
35
230
139
12
138
304
1044
818
1959
859
112
45
646
425
617
375
12
74
46
3266
501
176
60
532
4
1483
2033
278
30
463
360
1112
13
1741
21
1748
980
178
3260
1969
1632
142
20
368
357
176
6354
13
138
37
420
4103
277
147
1187
1636
145
33
86
944
887
185
49
416
658
4612
1363
129
312
26
19
2114
1750
121
615
104
644
204
2052
626
240
30
904
64
1004
2769
99
22
540
66
1204
3764
4790
108
12308
48
80
3720
9774
53
482
4048
152
139
333
40
1554
210
2430
2331
114
2978
3764
12
19
108
152
268
4096
151
57
385
10079
2020
472
230
198
216
122
420
106
558
2650
2279
30
279
540
155
5502
8529
215
1168
1864
489
970
452
270
238
513
13
28
2020
2278
6
355
337
1372
178
111
33
2421
5
21440
188
268
1886
238
2420
735
62
648
88
1639
198
980
574
101
4
161
3281
1292
177
613
730
462
4234
8
137
575
272
1117
132
33
1459
73
41
1501
1205
66
3542
60
1227
1905
1804
3103
141
42
5515
179
114
272
118
442
236
29610
626
1596
2538
800
2326
775
72
503
109
1715
1567
4920
1092
5181
1928
933
228
492
12396
1940
701
29
8
1329
381
806
1135
6507
6
8052
271
59
772
31
41
175
585
385
39
75
1516
181
1255
6870
342
315
119
12
446
382
1
861
1306
212
124
2065
1482
6
966
3323
1457
2415
319
74
3016
1823
699
574
46
103
2130
516
898
1036
658
16
67
273
7334
1365
108
89
194
579
220
1521
6905
290
7038
173
1134
148
836
681
15
543
7164
1210
1824
940
376
1250
849
10
89
17
1578
5091
832
1514
1314
344
152
2227
966
958
8
6
364
2552
170
645
238
925
122
159
9607
14304
191
283
238
7104
67
74
6008
2236
1360
98
162
425
426
106
358
2085
34
536
25
26
1828
285
5652
630
377
36
2896
33
2157
2040
637
171
318
40
348
542
2138
590
1080
30
204
35
261
2033
786
88
996
118
111
46
99
1512
2794
87
1472
225
69
11781
1876
281
210
10
580
513
14
468
483
639
134
170
148
37
521
543
2793
13
630
689
426
4386
4104
9588
486
4
689
1885
287
1286
318
7998
127
204
1056
825
1881
3116
1148
13
34
643
2381
65
290
592
402
189
52
8432
18
682
4022
196
10116
788
402
845
38
2193
1178
5871
3783
4340
215
2
246
2239
971
220
1755
526
108
2268
582
2
956
59
34
57
458
340
92
26
6975
212
1516
602
1857
3644
886
877
1088
4596
3346
513
181
83
8766
180
9141
3759
16
1331
2031
221
456
90
230
165
258
200
108
61
177
3658
3519
272
11260
194
213
690
5323
156
348
542
74
568
4182
3400
325
411
2334
93
20
2495
247
26
2582
481
776
95
84
124
2000
506
384
56
164
6930
8
361
119
1099
77
510
672
39
8
734
600
673
819
6
2189
2552
7604
612
1814
2317
220
1439
1526
4495
399
4110
140
1010
885
2305
1514
9
88
149
841
172
1026
150
504
54
12204
404
122
14
90
354
576
382
213
1646
1630
526
399
986
301
3383
1181
905
286
66
648
469
1270
162
262
20
102
15
1152
1667
2
92
1040
1676
1004
12
399
378
10
164
1084
352
4
83
54
1053
1723
73
622
67
926
23312
1143
506
3127
228
1881
31
18
45
196
156
15
114
340
448
12
632
50
138
994
128
1914
111
123
74
508
1392
368
204
2333
8
136
24
4145
96
3426
2
243
539
26
63
339
947
947
564
382
1715
1661
4414
5385
352
424
74
701
276
172
2682
1438
2981
171
21
3821
656
27
87
667
274
2930
276
7
13028
3200
261
242
4
6638
924
7608
3466
1415
497
64
34
297
41
238
215
1704
7272
117
183
197
410
189
106
43
596
1837
16
914
146
1486
2819
154
605
240
2555
521
78
136
1404
1661
1260
256
309
10
4
791
30
35
902
270
866
343
273
1242
314
84
484
157
2281
5
4329
5
1765
262
1245
960
36
1130
1311
3391
1321
12
233
256
1346
363
598
105
28
5371
48
2565
60
4176
18
8423
418
24
234
1214
42
545
244
994
3030
400
675
19
10800
61
2199
1017
2
679
1094
1654
777
1292
758
19
506
417
1408
3726
73
957
148
1297
95
648
373
1605
1686
885
51
346
1219
139
334
2095
1036
134
24
2717
138
344
1224
1458
14
3542
985
73
959
51
847
1600
749
139
2290
101
3056
774
252
3
343
629
72
660
471
970
315
106
462
124
420
36
958
1
193
254
1106
1040
98
171
372
32
4853
1411
215
341
642
387
348
11
4570
883
16
170
478
3614
1702
4824
728
318
406
45
684
71
486
607
28
1173
1528
1300
1637
1280
157
930
149
431
106
1842
5952
17664
1692
8048
796
34
196
2834
433
46
616
8696
14
2086
5353
31
423
322
30
308
222
3816
124
2223
2892
277
2151
114
49
14304
192
36
612
170
34
981
38
114
1231
128
306
88
936
905
94
185
546
1689
103
2324
307
181
42
17
174
656
16050
424
1879
708
1712
117
214
4670
38
71
944
697
380
1384
27
770
153
4774
3260
471
120
4
2616
72
82
406
15750
51
575
957
24
325
1504
90
1384
76
500
369
4252
5315
114
3534
186
2790
326
979
1069
26
2666
498
861
1214
73
1159
1004
887
392
425
414
340
141
230
2753
430
20
295
171
3162
2391
60
738
11
549
251
4430
1572
293
5544
111
678
2841
6954
2587
448
200
832
1365
855
2411
11
356
227
412
208
2694
2788
172
255
197
1121
335
474
998
401
194
88
1201
76
20
5719
438
53
40
792
8973
776
328
548
132
402
5
5862
985
3400
1321
208
3804
4661
586
412
135
318
1036
260
3636
66
199
8587
39
207
72
114
178
781
150
548
2087
99
1544
53
6607
1088
4966
7246
30
302
33
676
63
106
2368
29
3236
147
581
416
37
31
244
206
1225
17587
54
920
726
4194
31
990
371
158
374
1080
88
279
140
3166
1264
13194
1674
22
18882
12
1466
195
63
67
206
840
164
5
28
2256
1953
2421
76
5862
3540
195
807
345
340
14
488
343
2116
1738
44
66
1875
81
200
1123
53
186
117
1266
21
597
1899
10
56
1214
3592
1227
1079
158
172
2686
693
4218
538
3714
1564
11
9
1473
135
919
1008
1297
62
2547
8934
346
373
24
867
349
1169
277
5356
6033
5788
1511
258
1124
422
277
173
141
106
204
99
502
5841
833
379
20
3666
11014
25
1423
686
779
2382
600
138
1362
362
319
4329
623
342
362
35
9174
34
1362
3383
192
806
48
176
3016
447
586
342
1765
171
3764
480
93
15
402
468
33
101
3545
665
120
31
96
88
762
8576
3248
263
81
145
3639
768
4135
1931
97
204
4176
763
2248
12
243
336
32
6711
444
2838
8
24
256
33
108
2278
512
31
857
1347
7
253
76
645
418
939
1365
339
52
4818
4
1826
16
27
657
2492
18
9
1496
2397
2517
1582
47
525
2619
1239
670
390
45
1659
577
5554
1271
201
106
4456
1201
1370
1898
108
15438
2260
58
818
380
2046
802
66
1630
1163
125
131
12
2748
575
141
49
129
473
135
203
1444
236
89
85917
574
80
1301
822
358
45
435
167
92
62
604
900
162
4092
5716
193
218
247
10
7
294
534
296
156
3199
267
21
5436
2020
1832
109
180
4246
2914
873
2733
968
13011
111
2778
1358
522
33
259
276
1886
64
3989
439
278
3362
880
408
3970
1058
640
825
531
1052
532
2039
88
3682
3075
9087
2083
39
286
102
25
830
1238
5059
786
3200
326
1292
44
3018
1273
42
194
143
8186
7
20
5252
96
658
3
1700
195
348
2222
162
2060
100
37
4
983
2158
4290
1497
493
71
23
492
1715
4627
238
1034
2092
14
1455
735
386
9591
181
551
894
4126
777
232
15438
118
2455
5328
259
174
3441
132
332
72
65
4365
744
28
7
30
7622
1734
2596
109
1056
188
5420
263
102
378
1602
5
6
31
