104
675
99
12
29
76
434
118
135
871
408
88
307
47
223
156
624
624
19
49
624
1044
99
26
142
7
678
412
13
26
49
36
28
156
174
724
28
1071
8
274
368
161
80
225
114
131
904
1142
24
388
49
103
24
8
19
411
636
13
48
156
87
2649
274
420
1158
45
480
2
13
292
435
936
4
304
368
105
44
185
134
75
249
49
351
1114
196
330
132
2519
834
104
742
122
10
354
475
117
322
59
39
12
149
179
40
42
106
19
438
31
190
54
21
602
1105
69
24
33
734
63
272
796
1812
173
3
3504
65
133
494
48
68
287
294
348
2682
472
900
132
37
187
153
315
133
312
1
949
336
277
100
166
37
256
446
66
1815
201
40
106
1791
15
421
404
469
18
218
208
476
115
305
119
105
244
107
304
67
118
114
352
98
102
563
69
2826
166
129
123
573
33
939
1131
100
748
18
663
828
36
25
300
182
1139
22
3
1056
23
53
45
495
38
406
5169
136
1002
24
89
26
1287
39
1504
522
291
317
576
909
116
656
1578
1207
155
27
23
167
88
407
174
242
142
1614
110
860
1120
322
250
401
196
327
316
465
14
201
118
530
8
2
1236
30
89
766
752
252
873
18
1434
82
9
7
17
147
239
7
228
315
18
445
184
18
2437
166
60
340
717
36
7
826
90
324
220
555
304
99
31
354
119
2138
73
270
20
416
1925
123
358
747
430
7
114
94
15
153
67
154
1242
40
396
428
11
84
1179
777
357
1
204
100
1237
1368
487
280
102
89
137
980
218
1167
35
200
92
14
103
189
26
84
347
133
52
1025
242
56
13
816
9
1864
243
228
502
1414
276
19
12
489
859
1105
26
1
108
50
3218
84
2
80
54
442
116
116
83
71
687
718
33
263
37
85
142
1211
72
4460
15
560
272
13
271
24
113
168
462
102
17
416
1179
696
443
265
105
637
600
744
187
562
27
2226
937
356
27
10
335
117
100
124
663
14
511
234
330
9
156
512
64
219
675
102
37
109
96
423
64
397
44
242
4
10
687
166
1140
167
225
21
136
504
589
9
2
10
16
420
10
48
2106
100
10
567
1
445
48
132
542
6
863
67
3084
133
125
2
438
121
2743
115
3
149
10
47
372
310
211
127
141
373
1392
22
852
797
114
27
114
327
69
94
680
1158
38
337
433
5
120
2
1550
30
16
185
236
470
631
262
72
361
86
262
14
131
22
84
2676
290
194
20
72
825
411
586
370
69
22
175
142
69
1302
20
4
703
830
96
38
173
219
9
57
169
550
13
262
71
223
12
51
378
24
139
66
210
1468
58
108
1266
1038
415
131
42
257
64
72
835
67
16
80
107
112
285
716
57
1270
6
131
193
534
1
85
47
1028
552
218
5
22
54
867
774
276
849
577
187
111
50
14
13
115
393
961
459
276
43
34
315
175
268
360
1332
37
6
221
26
15
147
258
60
87
6
6
304
512
110
482
148
204
7
50
346
24
54
704
40
142
257
309
239
56
64
41
1040
789
39
349
78
145
556
585
103
158
156
260
945
423
10
999
344
334
2
208
530
83
490
51
57
144
136
306
90
250
68
506
66
380
1288
1046
221
85
32
9
1294
1934
279
3992
314
1123
98
25
3
333
365
328
504
717
144
240
253
514
19
200
458
801
3
17
234
170
54
82
67
2111
141
136
26
1022
91
418
86
190
102
268
151
1875
243
110
408
186
825
9
30
357
35
34
20
27
436
10
202
429
81
648
3212
365
44
60
64
1326
408
554
304
1970
992
720
92
78
163
284
159
21
186
535
62
55
115
3
452
57
1569
192
39
13
943
11
16
7
458
636
514
3012
10
121
27
60
1308
508
134
7
82
840
426
139
262
1690
11
14
44
74
652
1774
537
22
180
6
84
85
39
3
247
619
52
873
907
1042
27
1356
163
485
123
68
551
186
230
20
128
162
6
27
331
246
98
144
644
70
270
602
811
555
69
167
15
214
425
108
68
61
146
140
49
378
210
4563
49
136
228
648
1348
64
71
169
129
1112
2214
1710
68
1261
367
753
4
1326
790
223
70
567
100
12
281
96
2610
6
101
218
221
94
151
249
53
20
90
1840
254
45
163
411
94
28
4803
1076
1158
649
518
310
393
389
51
381
18
3556
76
634
335
136
815
46
92
22
61
557
88
54
362
1381
1516
2
72
2274
1716
92
54
5958
119
3960
12
14
33
724
1449
2434
440
585
75
753
124
124
189
1595
12
35
1968
616
135
552
108
336
1044
557
138
215
32
102
28
166
176
117
21
72
57
88
171
20
1398
26
38
379
9
133
6
12
81
1080
90
39
26
95
144
113
206
24
413
19
76
484
22
246
131
64
306
6
304
19
62
5
130
477
9
258
86
172
253
36
26
665
177
730
126
10
23
360
16
91
327
708
220
174
47
470
117
584
168
90
1012
59
1544
433
49
1310
470
198
26
58
606
9
196
380
297
196
588
48
142
228
118
372
471
35
19
300
94
135
358
16
279
1569
1712
84
8
179
348
33
112
344
85
42
44
56
22
28
1414
48
3218
38
663
51
736
40
693
1489
42
70
9
27
743
12
23
193
79
68
55
136
27
277
490
107
201
999
10
3134
442
300
253
518
160
11
138
722
239
43
1472
14
26
623
298
828
97
784
1207
55
142
48
168
2500
186
52
309
62
1
437
894
225
204
203
267
248
123
36
171
81
33
14
1078
223
56
16
19
1338
351
212
200
600
3992
34
197
448
54
32
421
412
12
1845
6
171
211
4
60
18
367
462
232
68
1178
454
4
69
287
266
132
1205
168
499
132
78
105
205
6
87
29
32
67
4
136
300
50
15
234
110
23
7
630
74
1296
190
73
142
8
45
34
512
1076
105
74
384
812
2594
25
12
17
19
34
25
625
12
454
11
41
546
287
52
12
1845
119
1710
1565
104
14
19
258
234
11
116
129
447
571
80
56
180
1460
392
624
13
12
189
624
2
306
223
26
11
103
38
924
122
83
30
270
1362
106
2
1270
20
113
440
17
507
139
327
160
156
500
3
25
19
55
1614
118
23
2594
6
34
235
786
236
31
4
228
566
38
208
168
212
154
176
552
458
125
734
323
528
154
155
119
381
735
3630
190
70
1495
112
502
3422
1388
216
520
123
731
25
16
1381
1136
119
117
1087
356
1658
458
118
206
28
238
802
514
50
430
1532
696
58
44
111
114
120
1
72
489
1933
551
198
262
160
439
37
294
167
8
1069
1632
40
71
113
196
758
11
35
6
1130
46
1179
248
40
66
445
957
1
116
359
14
1976
145
675
2482
17
360
1294
104
205
1742
51
788
55
523
401
5694
122
65
204
42
40
34
501
910
151
640
1632
522
16
36
304
42
2165
209
3
1390
143
651
37
234
100
152
74
46
921
85
29
136
694
127
45
10
1468
485
436
647
2610
668
25
1
83
34
1132
440
1386
396
93
822
371
39
724
111
99
100
276
172
34
892
18
1
10
198
10
189
628
17
4
1050
3
861
35
1
99
68
71
2250
3210
22
177
1
116
483
223
247
226
30
168
81
539
168
100
505
198
157
200
55
556
660
100
186
30
274
1890
275
78
4776
602
31
90
178
149
36
9
1207
792
514
332
828
29
16
241
90
1244
508
50
29
123
579
750
121
72
294
1239
597
6159
72
124
34
156
155
249
656
41
199
616
327
3
65
9
852
182
28
71
12
48
32
52
481
832
111
288
148
200
699
434
266
577
27
4
9
531
384
12
606
146
146
103
1486
18
532
471
320
3233
47
6
698
832
251
184
19
410
192
15
34
25
225
172
1284
12
1482
23
441
467
67
30
114
57
1452
394
650
19
66
620
732
15
454
305
128
60
50
142
762
6
168
174
18
1149
208
3
166
132
1432
187
220
414
179
2106
432
115
4
192
99
905
181
651
211
42
96
544
541
312
90
42
66
213
262
124
307
325
447
134
59
102
649
3556
701
1005
62
540
16
298
230
532
36
234
554
228
932
160
475
111
48
102
128
240
16
536
272
363
51
1430
18
1078
103
302
250
225
21
44
66
24
6
3
1468
81
11
154
15
238
278
56
80
408
64
54
550
13
472
439
394
223
83
30
590
342
22
684
110
2588
8
1
152
26
7
306
57
124
12
26
214
52
174
540
48
148
111
224
1058
228
900
46
262
156
315
30
26
90
8
282
468
210
146
1589
8
423
1078
393
109
172
144
111
475
942
270
287
386
149
9
66
1049
1409
4314
114
618
140
84
1074
571
1629
28
211
178
1053
370
42
1817
7
24
23
188
260
243
128
505
6
45
72
108
26
59
98
5
144
6
264
151
1324
135
70
558
48
97
149
47
289
82
5
15
82
290
61
4
28
306
819
18
123
90
253
144
368
63
5
6
309
122
33
272
1392
240
159
966
63
349
132
159
1965
169
220
219
1710
94
93
17
199
1231
402
110
130
6
344
151
349
320
822
717
46
10
405
18
428
1
227
14
63
118
377
21
150
194
690
19
765
14
36
1155
76
279
91
184
58
508
50
57
1171
221
1322
477
252
18
6
246
804
1041
266
413
208
33
1548
273
892
1078
606
429
27
164
508
8
174
518
55
317
223
16
179
435
16
8
3
94
708
52
44
2832
1536
14
42
726
7
337
254
285
3024
128
1770
17
492
129
193
33
30
265
178
162
815
74
1038
223
250
848
455
24
1794
131
303
14
16
58
10
66
412
36
850
222
396
6
64
456
40
65
1044
102
136
91
90
15
330
261
2466
71
6
276
244
85
1166
66
6
112
64
690
348
834
266
19
7
654
3218
205
36
446
231
86
215
8
73
356
21
157
248
1165
766
934
275
233
6
295
23
667
86
39
136
288
583
171
183
741
212
28
200
102
36
31
4698
172
742
28
362
2
871
112
334
142
14
384
217
166
12
4450
3084
60
90
78
13
134
170
38
34
518
192
107
267
217
19
32
93
12
346
9
11
48
661
601
37
396
211
39
95
329
318
38
188
19
426
28
141
409
86
477
44
26
240
30
2
8
3
37
2896
702
2060
1005
388
13
555
575
822
198
39
729
5048
22
42
90
32
88
31
943
781
191
28
1014
217
3
214
1207
13
1597
94
17
136
29
195
92
634
1553
483
744
18
9
77
93
921
197
24
168
254
899
236
346
34
155
7
713
37
8
169
28
18
17
75
2400
31
49
230
91
354
59
26
612
98
45
204
455
648
193
25
6
211
135
44
3
76
242
1430
471
379
201
181
41
356
8
228
739
1240
686
24
162
271
159
318
51
2648
106
235
27
1902
112
104
598
469
11
678
72
1736
64
442
942
305
58
584
209
1211
65
713
44
3
143
243
41
703
184
39
88
830
143
704
29
192
143
9
2098
342
60
695
11
181
739
14
542
84
1650
358
452
929
18
327
241
74
671
497
122
68
4
539
1155
93
244
381
2037
80
210
44
4058
36
150
3025
571
287
12
489
1161
1001
439
99
21
56
23
120
48
5
35
40
607
438
355
7
71
1390
90
317
540
1956
514
1002
32
99
308
75
1123
166
42
474
203
45
1976
1572
2
105
1482
45
108
57
182
38
267
268
64
22
29
72
108
19
244
166
18
282
125
3
175
3084
150
5
30
4
92
828
577
184
332
271
22
1744
153
2648
96
7
13
6
336
718
22
78
426
43
122
144
21
122
774
23
225
1
751
152
156
494
539
297
472
394
358
56
594
91
120
709
254
151
88
1381
171
342
72
158
193
454
402
41
357
22
437
90
27
1276
1489
475
30
694
2437
10680
50
61
39
949
348
155
168
748
30
15
49
47
330
317
629
988
1570
62
56
1156
91
93
380
45
42
3479
383
1107
63
113
578
351
3464
2087
76
1113
95
691
18
1074
1113
178
4
518
144
12
282
32
214
314
63
1870
1874
546
11
21
494
150
6
199
1108
746
519
4058
311
84
437
40
220
190
34
79
1614
89
89
134
2
101
182
20
113
48
1826
9
63
51
64
106
10
15
279
2400
600
921
56
822
168
704
2
150
119
198
155
1023
597
350
38
18
140
302
1614
70
18
6
274
172
2712
15
906
124
792
13
27
738
46
1011
3106
186
38
26
26
274
188
66
32
36
568
150
56
955
89
21
4
147
753
210
1592
631
310
146
447
66
752
507
206
128
50
478
363
400
50
2112
85
443
199
10
127
29
41
26
2106
522
735
83
69
30
151
538
3
523
528
45
5
830
61
43
169
206
298
83
2826
8
229
208
248
489
170
209
74
1434
62
44
26
284
71
113
112
1224
70
114
1676
111
37
77
599
45
571
51
606
65
297
337
95
18
491
1448
8
894
18
1632
1479
96
274
540
82
140
107
2400
25
106
32
269
8
1862
548
94
1494
246
555
486
17
432
2342
24
110
314
283
14
70
959
195
168
26
64
19
834
1276
314
30
117
32
1509
205
6
72
638
553
79
252
580
457
936
20
81
1870
62
350
13
236
1614
86
362
200
15
918
208
284
56
724
951
187
3134
240
27
167
376
94
134
1976
90
59
130
607
3306
3256
18
136
358
239
116
158
119
22
42
2087
95
939
99
104
469
70
79
90
26
76
4
244
55
245
49
852
34
162
1482
186
181
110
498
742
431
422
6
168
86
90
818
24
4
252
14
1119
37
24
108
378
957
843
15
221
8268
141
2157
18
10
350
418
195
342
27
5
73
2144
14
27
51
366
1207
342
140
459
458
48
1266
435
56
111
74
189
184
18
30
654
324
276
492
3630
384
93
84
77
1632
3274
34
16
72
1826
573
508
540
137
50
44
48
90
1
618
6
604
277
273
480
1158
221
7
372
212
444
266
7
796
124
71
428
84
15
5
287
110
117
6
300
408
70
52
450
74
432
732
64
83
45
14
70
142
901
1288
2686
314
113
324
34
147
696
580
4
1
72
54
654
1395
21
1216
981
768
399
708
152
3558
77
327
258
27
24
276
159
94
33
30
50
3
287
602
22
302
940
104
2448
132
367
15
376
60
153
50
17
120
1502
12
7464
242
24
115
91
778
594
90
14
810
233
236
692
380
45
70
9
421
71
39
107
33
496
237
295
25
68
5
234
618
128
104
506
1070
4
823
48
1484
29
16
1528
316
9
201
151
224
162
134
190
24
126
18
112
100
334
238
540
960
485
1872
301
24
350
526
652
44
91
33
540
3042
17
38
901
153
1
173
21
155
218
86
481
434
32
858
306
130
149
121
306
116
202
484
68
277
272
1257
281
3204
70
1304
44
176
12
438
58
103
1294
35
76
713
82
74
111
324
519
35
118
324
22
12
837
145
254
1510
17
62
1994
83
1147
653
13
480
60
102
5
960
34
369
21
418
307
1494
1791
546
182
297
463
1301
401
768
2479
933
349
492
590
20
53
49
15
710
301
76
213
735
1815
236
45
539
335
56
1307
568
251
199
590
738
407
3036
276
474
7
703
1845
23
423
34
1956
128
453
9
227
870
25
54
261
155
72
153
228
504
2569
734
477
973
272
1180
59
1056
80
44
143
5
22
4058
693
5
185
1445
184
2
14
700
865
138
2
360
200
695
31
85
164
44
32
34
1802
1149
136
321
50
188
46
239
44
225
2712
34
108
73
1025
162
578
44
3212
115
7
22
189
155
155
265
90
18
232
83
291
123
16
750
180
132
87
127
202
36
1448
9
2086
24
503
167
171
3
133
144
397
454
298
1875
33
350
46
51
106
97
158
362
363
287
19
484
174
1016
203
16
1
1558
265
2384
2396
21
149
45
47
621
159
36
142
60
661
258
34
14
204
22
486
327
1078
98
99
1622
99
1116
11
84
9
96
445
22
1038
50
63
144
396
15
81
36
338
353
6
951
158
63
759
96
344
1105
598
99
430
139
109
2098
324
69
22
4450
1968
245
424
21
15
174
18
64
114
6
308
61
33
930
45
16
31
68
53
1676
15
16
282
220
188
1358
477
26
644
357
912
12
496
87
177
424
153
704
312
696
208
84
21
66
12
27
188
558
261
280
91
28
15
572
12
155
4
49
10
837
4
114
496
5
1135
193
144
1105
138
342
757
40
64
66
804
710
1158
78
16
67
397
510
237
840
149
7
1260
20
4460
22
123
33
324
5
198
52
82
295
206
398
230
423
17
128
182
51
78
21
17
384
234
14
1933
1718
445
48
250
40
470
30
88
1123
420
18
27
60
32
26
5
447
22
896
120
2
4
43
1550
228
508
113
213
110
115
250
696
1116
80
2238
22
43
68
25
78
149
1137
161
20
63
367
269
4803
48
69
374
446
93
126
132
1261
508
3
352
476
66
213
1062
64
15
150
747
99
535
136
187
93
594
120
900
69
28
210
24
1560
9
37
174
552
31
96
110
34
266
108
149
144
4
5
1320
124
13
377
402
360
147
720
306
1326
57
225
479
48
176
178
3
58
263
1791
628
255
470
41
367
1241
86
591
362
4
51
7
114
28
43
816
741
213
54
250
1968
840
12
14
1
11
25
160
728
200
380
516
171
101
163
2488
270
732
1251
781
242
1862
270
27
64
54
214
260
649
184
223
408
789
8
9
533
18
259
61
338
6
85
1643
6411
10
531
735
20
61
539
139
2342
68
4
4770
174
1994
18
246
380
86
268
128
198
2
700
1336
1131
1
60
396
9
339
508
1072
66
86
231
6
6
19
90
17
220
38
661
40
60
1976
906
92
165
412
8
108
1812
162
26
1206
395
313
924
297
489
69
44
50
805
105
27
204
588
74
4
654
600
516
685
117
250
168
252
79
1080
5
4
126
200
1150
458
781
374
10
207
60
252
146
32
346
711
160
18
49
2337
103
414
2
163
37
522
414
62
223
156
5
907
158
916
2034
112
40
22
19
32
165
401
2
22
4350
163
1127
758
12
1797
299
41
13
266
65
296
15
312
82
6
234
280
210
1484
11
26
78
73
436
308
60
166
256
424
210
82
340
30
936
138
3
93
15
290
7
341
828
26
182
1557
2138
1044
426
1026
42
278
102
865
493
2594
343
140
424
309
186
570
1635
189
90
306
154
18
244
225
20
16
945
23
609
117
700
54
942
60
70
50
111
204
193
93
14
651
237
154
661
450
296
9
223
47
370
502
6
675
949
24
72
978
348
200
54
1261
153
470
626
2
897
10
84
65
2260
651
294
1494
447
5
319
218
1268
48
50
421
838
137
5952
506
1016
22
284
102
625
1170
229
214
3
129
264
350
210
275
238
93
163
287
736
1258
1211
103
40
552
134
206
20
94
32
685
68
709
213
111
11
288
325
1
39
2018
181
10
39
74
1482
223
7
2
131
94
134
63
66
42
11
16
36
388
156
419
140
120
54
51
94
2949
190
1994
2271
661
3726
191
5
968
1482
312
27
98
532
1352
250
65
8
74
11
10
28
120
468
581
36
296
293
57
180
1968
23
5
696
93
695
167
81
539
130
300
297
860
531
31
200
13
888
380
151
207
36
720
18
1672
11
246
446
101
64
51
32
132
77
104
73
310
158
1471
1022
1284
155
83
150
76
155
16
19
86
238
246
3556
362
2793
19
602
124
1294
766
193
2206
294
362
243
116
335
128
17
188
126
312
157
348
119
50
112
128
65
204
232
5
73
3992
45
398
679
38
473
906
132
173
1839
185
66
519
85
249
17
118
1002
4
29
34
15
159
1374
980
550
140
1211
106
26
50
312
478
323
2748
1774
918
35
24
318
844
651
1826
419
240
50
987
3418
6
174
1210
791
250
48
436
362
128
945
296
272
633
18
147
131
45
114
210
10
14
130
348
39
341
696
2
493
589
178
30
77
2678
198
167
44
52
37
72
236
277
198
227
1390
446
657
840
99
504
26
73
136
24
525
32
1973
519
6
1467
54
2138
36
62
146
28
402
39
135
40
874
151
243
1206
2868
388
424
160
194
17
66
1170
337
4
498
34
226
30
1884
375
39
84
44
168
208
990
151
728
1098
298
132
190
342
1260
294
52
322
270
3084
10
8
35
828
22
339
387
207
47
229
456
48
674
128
12
230
56
101
582
1490
66
225
243
1614
1176
306
66
33
753
30
514
26
1123
473
190
241
318
186
225
287
105
558
68
316
843
59
509
144
122
686
6
9
216
140
150
8
40
675
79
1415
2908
506
555
1020
40
1870
71
103
1044
26
2356
132
1
836
42
1318
58
2321
3000
214
459
106
56
401
6
47
41
2409
282
174
189
1629
97
2350
1
114
82
1150
16
404
442
4
819
269
14
767
62
433
141
80
1804
222
205
242
580
8
149
102
248
466
168
312
524
345
155
22
66
2036
291
1744
1136
54
6
7512
315
609
1000
5607
2
380
5
730
259
851
726
1546
252
66
140
104
252
791
62
486
864
498
216
1078
80
40
103
72
450
104
1534
166
168
130
266
149
118
602
579
1242
40
105
3
592
564
540
4450
7
80
1752
41
443
391
106
438
79
245
225
2342
66
942
83
748
494
1211
2
102
213
148
3615
101
39
87
69
229
230
393
16
696
212
428
203
733
1826
253
104
52
43
385
338
212
11
198
600
297
1326
398
12
14
1377
38
1632
483
3
51
1254
147
384
575
111
532
35
400
343
477
263
21
531
955
2238
586
17
27
626
12372
185
188
17
116
272
260
128
103
7
38
873
72
32
12
11
210
162
179
4803
315
168
119
507
900
118
319
1167
2321
235
1288
2784
44
23
966
3
1502
63
342
63
20
198
232
40
549
138
354
358
197
325
1
367
504
606
1098
96
95
32
192
4
10
47
26
40
50
558
89
173
357
802
19
502
12
65
25
182
4297
40
490
34
367
427
54
422
31
83
74
426
61
58
99
2712
1659
376
1050
52
68
11
96
31
135
169
38
10
939
447
4
342
32
1724
92
598
708
10
761
68
240
52
321
74
50
434
10
134
117
85
1815
87
145
609
93
1
21
360
68
7
421
9
3
582
218
1294
580
14
375
8
14
269
1372
500
23
165
35
544
361
85
234
1168
612
50
613
4
15
1444
523
228
9
224
556
105
1087
211
100
142
1820
88
8
433
368
1062
417
45
10
194
2
552
29
202
117
224
85
1017
352
287
52
41
26
843
51
468
78
14
358
25
504
53
31
133
70
715
5
360
462
734
3210
152
38
298
1317
851
924
598
261
170
3612
136
50
9
1754
15
21
2424
52
222
597
2086
237
28
70
110
16
19
79
48
1239
116
402
40
52
277
860
76
181
38
24
69
13
53
29
16
162
31
2
841
80
18
1791
166
117
126
24
132
3492
1744
24
317
168
14
113
558
399
302
735
4800
9
4698
6
540
375
53
115
142
748
148
107
108
54
149
31
214
914
282
87
12
115
811
737
1
1349
78
809
32
288
140
544
76
350
63
221
265
203
264
1539
126
496
702
1494
506
828
55
154
414
5
103
680
31
984
1484
125
1830
1430
173
88
154
220
53
133
1207
44
14
1432
3630
265
224
40
139
94
12
666
291
355
320
22
238
12
17
52
11
12
563
13
29
331
73
1
748
39
814
160
3681
804
126
24
299
133
4
65
133
134
64
174
24
651
174
100
31
102
109
3360
2
446
1643
170
215
867
82
89
220
155
38
411
204
56
38
82
533
73
510
1050
110
18
1386
24
1270
650
228
267
23
89
1
15
574
348
144
21
611
150
476
1115
265
338
133
713
15
54
244
1784
1356
43
28
102
600
2
23
128
534
1
210
789
83
3
651
760
31
30
1000
325
141
855
1050
24
18
77
26
720
417
14
284
540
66
730
57
288
221
26
4
232
55
2029
193
108
962
1470
84
22
90
52
122
206
60
310
103
1092
479
1
138
520
2268
302
156
67
15
1092
1122
2487
871
295
141
42
1266
247
78
26
1768
40
177
212
149
41
3218
58
140
115
735
249
43
324
607
